[
	{
		"id": 1,
		"name": "Rerum voluptatem beatae nesciunt consectetur.",
		"description": "Ut quisquam molestias ut.\nQuia laudantium est quo asperiores veritatis porro ut quod doloribus.\nReiciendis odit ut hic libero.\nFuga debitis veniam ut.\nEos modi dolorem quia accusamus asperiores a et molestiae.\nAut eius et nihil voluptatem.",
		"created_at": "2019-06-18T13:46:19.5946511+00:00",
		"deadline": "2020-01-13T06:24:33.4017917+00:00",
		"author_id": 37,
		"team_id": 9
	},
	{
		"id": 2,
		"name": "Atque quia et optio aut.",
		"description": "Non non aperiam aspernatur et est mollitia enim quia nihil.\nLibero adipisci quisquam earum fugiat et perferendis explicabo.",
		"created_at": "2019-06-18T20:12:38.1656422+00:00",
		"deadline": "2020-05-09T12:34:30.2615941+00:00",
		"author_id": 21,
		"team_id": 6
	},
	{
		"id": 3,
		"name": "Harum rerum ipsa quidem et.",
		"description": "Cupiditate veritatis ad rerum veritatis molestiae.\nDolorem soluta adipisci fuga iste aut est eveniet et.\nMolestiae ut nisi officia nobis consequatur neque sint.\nAut in non officia illo minus.\nVoluptas ut est qui dolore distinctio sint delectus.",
		"created_at": "2019-06-18T23:17:38.0143058+00:00",
		"deadline": "2019-09-14T16:45:32.4710039+00:00",
		"author_id": 17,
		"team_id": 10
	},
	{
		"id": 4,
		"name": "Pariatur nihil autem id illum.",
		"description": "Quia exercitationem eveniet voluptas inventore fugit et expedita.\nTotam et sunt qui saepe aut.\nDolorem quis tempore qui ut.",
		"created_at": "2019-06-19T05:25:50.4481808+00:00",
		"deadline": "2019-06-27T17:43:03.3518166+00:00",
		"author_id": 19,
		"team_id": 4
	},
	{
		"id": 5,
		"name": "Odit eveniet libero voluptatibus numquam.",
		"description": "Consectetur nisi voluptate vel earum inventore.\nVeniam illum alias aspernatur dolores fuga labore.\nConsequatur ut neque ut qui ratione consequatur dignissimos corporis.\nUnde corrupti hic numquam voluptas tempore sed aut modi ut.\nCorrupti et ipsam voluptas minus iure in voluptatem molestiae.",
		"created_at": "2019-06-19T03:17:44.1088497+00:00",
		"deadline": "2020-05-07T19:08:59.109895+00:00",
		"author_id": 37,
		"team_id": 2
	},
	{
		"id": 6,
		"name": "Non optio qui dolore non.",
		"description": "Eveniet aut laudantium qui.\nId et illo sit eveniet est ea.\nA aut totam nulla quia.",
		"created_at": "2019-06-19T03:21:51.5290346+00:00",
		"deadline": "2020-03-07T14:09:31.9304058+00:00",
		"author_id": 38,
		"team_id": 5
	},
	{
		"id": 7,
		"name": "Vel aperiam qui vel animi.",
		"description": "At a deserunt.\nPorro ut eum eaque et adipisci magni voluptatem cupiditate recusandae.\nAdipisci quia est.\nFacilis incidunt aut ipsa dolores corrupti.\nPorro est et in consectetur alias eum doloribus voluptatum.",
		"created_at": "2019-06-19T07:22:23.6160701+00:00",
		"deadline": "2020-05-28T12:00:34.6249921+00:00",
		"author_id": 5,
		"team_id": 5
	},
	{
		"id": 8,
		"name": "Illo et et molestiae aut.",
		"description": "Ut magnam aliquid quo dolores id.\nEaque quo debitis sint.\nAtque a amet.\nEst nisi consequatur magni itaque sed blanditiis dicta.",
		"created_at": "2019-06-18T20:52:17.9956032+00:00",
		"deadline": "2019-07-26T03:17:23.2035268+00:00",
		"author_id": 45,
		"team_id": 2
	},
	{
		"id": 9,
		"name": "Ratione quibusdam quae doloremque repudiandae.",
		"description": "Totam autem deserunt beatae officia autem nisi voluptatem animi.\nRepellat earum distinctio.",
		"created_at": "2019-06-19T03:42:12.547498+00:00",
		"deadline": "2020-05-02T19:07:07.8939262+00:00",
		"author_id": 43,
		"team_id": 9
	},
	{
		"id": 10,
		"name": "Consequatur blanditiis et consequatur quibusdam.",
		"description": "Animi ducimus officiis saepe eaque eum rerum amet.\nAut quisquam veniam perferendis voluptatem esse.\nMollitia eum vero veritatis aut.",
		"created_at": "2019-06-18T21:46:51.8766345+00:00",
		"deadline": "2020-06-02T08:21:51.4383575+00:00",
		"author_id": 25,
		"team_id": 5
	},
	{
		"id": 11,
		"name": "Aut totam accusantium blanditiis omnis.",
		"description": "Aut at deleniti eos sint ducimus fugit assumenda.\nVel excepturi natus voluptatem.\nConsequatur voluptatem officia sed ut voluptatibus earum.\nQuidem est tenetur voluptate.",
		"created_at": "2019-06-19T04:26:23.7051302+00:00",
		"deadline": "2020-01-20T22:56:19.1973581+00:00",
		"author_id": 4,
		"team_id": 4
	},
	{
		"id": 12,
		"name": "Qui debitis laborum ab ipsum.",
		"description": "Ad esse ratione enim dicta molestiae nostrum dignissimos itaque.\nMaxime dolorem voluptatem odio suscipit.",
		"created_at": "2019-06-18T15:09:30.3548658+00:00",
		"deadline": "2020-02-12T14:24:09.3363304+00:00",
		"author_id": 26,
		"team_id": 8
	},
	{
		"id": 13,
		"name": "Eius fugiat amet molestias eos.",
		"description": "Veniam vitae harum rerum aspernatur iure.\nProvident ipsam nihil possimus impedit at ad nisi.",
		"created_at": "2019-06-18T13:54:01.9435249+00:00",
		"deadline": "2019-09-02T05:11:06.4488945+00:00",
		"author_id": 1,
		"team_id": 1
	},
	{
		"id": 14,
		"name": "Eveniet numquam quam reprehenderit tempora.",
		"description": "Voluptatem itaque hic sunt et.\nModi nobis facilis quia consequatur.",
		"created_at": "2019-06-18T15:27:38.2451753+00:00",
		"deadline": "2020-06-15T12:33:40.7353544+00:00",
		"author_id": 11,
		"team_id": 4
	},
	{
		"id": 15,
		"name": "Et consequuntur harum saepe quibusdam.",
		"description": "Debitis et ipsum esse perferendis voluptatem amet eos.\nEa nulla dolor consequuntur impedit qui modi quibusdam.\nCorrupti dolorem harum dolores reprehenderit doloremque.\nCorrupti vel animi exercitationem omnis suscipit corporis odio et veritatis.\nEt quos enim quasi et.\nOccaecati voluptate ratione iusto tempora aut aperiam ut quo.",
		"created_at": "2019-06-18T23:21:01.6810913+00:00",
		"deadline": "2019-11-22T10:28:03.5565647+00:00",
		"author_id": 16,
		"team_id": 8
	},
	{
		"id": 16,
		"name": "Quod ut eos ut cupiditate.",
		"description": "Similique non quasi ut laboriosam et facilis.\nCorporis corporis velit esse libero.\nEt maiores rerum odio voluptatem in similique qui molestiae.\nDoloribus qui fuga quia dicta dolor tenetur maxime ullam repudiandae.\nDeserunt laboriosam id aspernatur.",
		"created_at": "2019-06-19T11:40:25.1100517+00:00",
		"deadline": "2020-03-12T08:12:15.2658557+00:00",
		"author_id": 8,
		"team_id": 8
	},
	{
		"id": 17,
		"name": "Provident tempora saepe ipsa sequi.",
		"description": "Aliquam aspernatur voluptatem adipisci sit.\nAlias neque unde est.",
		"created_at": "2019-06-18T21:27:25.4745735+00:00",
		"deadline": "2020-05-04T15:16:58.6393562+00:00",
		"author_id": 17,
		"team_id": 2
	},
	{
		"id": 18,
		"name": "Aliquid qui sed possimus quidem.",
		"description": "Minima laboriosam provident esse quibusdam quibusdam reprehenderit soluta.\nNobis rem velit.",
		"created_at": "2019-06-18T23:07:25.7057038+00:00",
		"deadline": "2020-04-19T09:15:19.7925505+00:00",
		"author_id": 27,
		"team_id": 9
	},
	{
		"id": 19,
		"name": "Odit saepe eaque officia dolor.",
		"description": "At quo deserunt quasi dolor omnis.\nQuis sint aspernatur est reiciendis omnis minus dolor eius.",
		"created_at": "2019-06-19T00:11:30.9305768+00:00",
		"deadline": "2019-11-04T03:43:47.862523+00:00",
		"author_id": 31,
		"team_id": 5
	},
	{
		"id": 20,
		"name": "Et ea quia nisi alias.",
		"description": "Aut eos mollitia iusto totam modi pariatur cum culpa quia.\nNumquam et voluptatem in a aut tempora perspiciatis.\nPlaceat voluptas tempore.\nReiciendis optio id similique qui quo dolore et.",
		"created_at": "2019-06-19T00:54:35.4041346+00:00",
		"deadline": "2020-02-22T21:10:24.6632318+00:00",
		"author_id": 41,
		"team_id": 8
	},
	{
		"id": 21,
		"name": "Sint nam eos facere voluptates.",
		"description": "Perferendis est qui culpa.\nCupiditate ducimus voluptatem sed.",
		"created_at": "2019-06-19T01:34:00.060343+00:00",
		"deadline": "2019-12-03T18:31:42.0786927+00:00",
		"author_id": 21,
		"team_id": 3
	},
	{
		"id": 22,
		"name": "Consectetur recusandae praesentium assumenda dolorum.",
		"description": "Et a distinctio sed.\nIste aut eaque.\nDicta autem dolor optio consequuntur distinctio.",
		"created_at": "2019-06-18T19:15:57.4342839+00:00",
		"deadline": "2019-06-25T04:13:58.2226122+00:00",
		"author_id": 30,
		"team_id": 2
	},
	{
		"id": 23,
		"name": "Ipsa consequatur eligendi magni est.",
		"description": "Beatae ut voluptatibus sed consequatur dolores et.\nSuscipit inventore maiores eos deleniti in unde voluptate qui.\nNam incidunt non.",
		"created_at": "2019-06-19T00:23:05.7094974+00:00",
		"deadline": "2020-01-10T22:20:41.9722806+00:00",
		"author_id": 27,
		"team_id": 10
	},
	{
		"id": 24,
		"name": "Et ratione labore modi quia.",
		"description": "Ut sint voluptatum.\nIllo ut porro expedita unde accusamus temporibus id.\nPorro rerum eveniet.\nMollitia odit aspernatur rerum eaque illo.\nNihil veritatis voluptas porro maiores reprehenderit id.\nIncidunt recusandae mollitia sapiente.",
		"created_at": "2019-06-18T14:40:07.2379982+00:00",
		"deadline": "2019-07-26T05:46:11.9505007+00:00",
		"author_id": 41,
		"team_id": 4
	},
	{
		"id": 25,
		"name": "Enim consequatur soluta distinctio est.",
		"description": "Nesciunt perferendis magnam maxime fuga et qui odit tempora praesentium.\nAperiam asperiores et alias tempore nesciunt voluptatem et autem aspernatur.\nCum quibusdam nobis.\nFacere temporibus itaque ea.\nMaxime dolor quia dolorem cumque id.\nVoluptatibus explicabo quas dolorem quis et qui omnis.",
		"created_at": "2019-06-19T03:18:10.7464928+00:00",
		"deadline": "2019-10-29T21:00:59.5404049+00:00",
		"author_id": 23,
		"team_id": 4
	},
	{
		"id": 26,
		"name": "Occaecati qui qui omnis temporibus.",
		"description": "Qui inventore eum enim itaque.\nEt veritatis non magnam.",
		"created_at": "2019-06-19T03:41:15.6600879+00:00",
		"deadline": "2020-04-13T21:08:51.6202244+00:00",
		"author_id": 38,
		"team_id": 4
	},
	{
		"id": 27,
		"name": "Excepturi veniam provident accusamus ad.",
		"description": "Et voluptates aut enim.\nId quo repellat id incidunt eum.\nCommodi veniam officia mollitia.\nError expedita quas iusto non cupiditate perspiciatis nihil consequatur.\nAut fugit est soluta sint quis.",
		"created_at": "2019-06-18T13:21:03.8963777+00:00",
		"deadline": "2019-08-18T13:39:43.201499+00:00",
		"author_id": 40,
		"team_id": 2
	},
	{
		"id": 28,
		"name": "Alias praesentium similique accusantium et.",
		"description": "Iusto laborum earum.\nEt nobis facere nemo dolorum dolore id est.\nSuscipit id rem velit dolorem aut.\nUnde accusamus voluptas velit corrupti odio explicabo dolor aut dicta.\nQuis voluptatem et aut explicabo et.",
		"created_at": "2019-06-18T23:39:26.5136897+00:00",
		"deadline": "2020-03-21T15:51:18.0057925+00:00",
		"author_id": 5,
		"team_id": 5
	},
	{
		"id": 29,
		"name": "Quis eveniet ipsa molestiae architecto.",
		"description": "Qui maiores consequatur velit.\nEt rem error est.\nNeque deleniti deserunt aut sed provident assumenda commodi.\nRerum tempora excepturi voluptate dignissimos id.\nDolores dolor aut quibusdam assumenda velit.",
		"created_at": "2019-06-18T15:09:52.9606571+00:00",
		"deadline": "2020-02-22T09:11:03.1530142+00:00",
		"author_id": 47,
		"team_id": 4
	},
	{
		"id": 30,
		"name": "Quisquam ad consectetur nihil accusantium.",
		"description": "Quia deserunt est voluptas rerum.\nCommodi ad veritatis libero.\nEarum aut in et laudantium qui deleniti exercitationem deserunt aut.\nPlaceat aut nam officia dicta consequatur quos quia cumque vero.",
		"created_at": "2019-06-19T08:54:41.9601531+00:00",
		"deadline": "2020-02-24T14:07:09.830295+00:00",
		"author_id": 10,
		"team_id": 1
	},
	{
		"id": 31,
		"name": "Consequuntur laborum magnam aut est.",
		"description": "Quod et maiores et ut et vel praesentium.\nMinus hic ut aliquid.\nAut quia exercitationem vitae iste repellendus necessitatibus ut sit.\nEst quos et suscipit sed.",
		"created_at": "2019-06-18T15:15:41.9830142+00:00",
		"deadline": "2019-09-11T14:32:34.3332658+00:00",
		"author_id": 15,
		"team_id": 10
	},
	{
		"id": 32,
		"name": "Voluptatem aut alias soluta dicta.",
		"description": "Cum quo deleniti.\nMinus nulla minus aut.\nOdio tenetur molestiae illo id.\nEst repellendus qui consequatur quae minus voluptatum nisi asperiores.",
		"created_at": "2019-06-19T00:54:47.9147377+00:00",
		"deadline": "2019-11-28T22:57:02.8276716+00:00",
		"author_id": 49,
		"team_id": 9
	},
	{
		"id": 33,
		"name": "Fugiat et dolores quia sed.",
		"description": "Dolor corrupti necessitatibus.\nNulla possimus illo perferendis soluta ad commodi.\nQuo ducimus ut eius hic minima et enim sed consequatur.\nNobis assumenda hic est dolor cupiditate.",
		"created_at": "2019-06-19T09:38:49.8123949+00:00",
		"deadline": "2020-05-29T20:58:27.9691306+00:00",
		"author_id": 38,
		"team_id": 4
	},
	{
		"id": 34,
		"name": "Harum rerum veniam saepe quia.",
		"description": "Soluta laudantium nam porro vitae.\nSit rerum animi.\nPerspiciatis non eaque ad et consequatur alias.\nPossimus eveniet aut debitis.\nId non aut molestiae vitae aut.\nVoluptas quod ipsam non deserunt id nihil assumenda animi minus.",
		"created_at": "2019-06-18T23:36:13.7530434+00:00",
		"deadline": "2020-03-25T11:56:03.3874006+00:00",
		"author_id": 1,
		"team_id": 6
	},
	{
		"id": 35,
		"name": "In illum ut incidunt est.",
		"description": "Nobis qui et dolor et.\nNon consectetur odit est aut quo est aliquam et et.\nSoluta ipsum odit ut id voluptatem dolores odit ullam.\nSuscipit impedit et adipisci ex aut libero.\nNostrum dolore aperiam autem omnis est in dolores.\nNam ipsum non est.",
		"created_at": "2019-06-18T13:09:13.5297205+00:00",
		"deadline": "2020-01-23T11:31:17.3637192+00:00",
		"author_id": 11,
		"team_id": 6
	},
	{
		"id": 36,
		"name": "Iste est quae beatae et.",
		"description": "Et nihil deserunt.\nVoluptatum velit maxime eos reiciendis laborum.\nConsequatur quibusdam rerum voluptate sit distinctio odit.\nTotam itaque quis eos quod quas aut facilis et dolore.\nError eos ipsam sapiente exercitationem suscipit sit explicabo.\nPorro et nemo.",
		"created_at": "2019-06-18T22:31:53.19229+00:00",
		"deadline": "2020-06-01T19:38:48.2019375+00:00",
		"author_id": 4,
		"team_id": 1
	},
	{
		"id": 37,
		"name": "Quisquam nam voluptatem qui eum.",
		"description": "Laudantium dolores magni error pariatur reiciendis consequatur.\nEarum et aliquid ab est illo quo deserunt quasi.\nError dicta quia unde.\nQuam repellendus expedita libero iure voluptatibus et pariatur.\nDeserunt quia pariatur dolorem.\nEst sit sed et.",
		"created_at": "2019-06-18T15:41:25.6978176+00:00",
		"deadline": "2020-06-01T07:53:09.2188105+00:00",
		"author_id": 49,
		"team_id": 7
	},
	{
		"id": 38,
		"name": "Accusantium iusto dolor rerum quasi.",
		"description": "Qui aut commodi sint.\nImpedit omnis adipisci nemo voluptatibus repellendus nostrum.",
		"created_at": "2019-06-18T21:20:15.6374838+00:00",
		"deadline": "2020-03-25T02:36:55.2629207+00:00",
		"author_id": 6,
		"team_id": 5
	},
	{
		"id": 39,
		"name": "Quia aut molestiae ullam illum.",
		"description": "Tempora sunt recusandae illum possimus eius.\nEt voluptates sunt id quam impedit sapiente non voluptatem blanditiis.\nEos consequatur libero dolorem nobis non corrupti similique aut in.\nFacilis dolor et quis ducimus eos ut sunt necessitatibus sit.",
		"created_at": "2019-06-19T03:56:48.4347185+00:00",
		"deadline": "2020-06-09T21:57:50.1402974+00:00",
		"author_id": 21,
		"team_id": 5
	},
	{
		"id": 40,
		"name": "Quisquam neque est placeat commodi.",
		"description": "Aut corporis soluta quidem voluptas inventore rerum consequatur.\nConsectetur aut ipsam fuga ut.\nIpsum ab voluptatem dolorem qui placeat error aut neque.",
		"created_at": "2019-06-18T14:45:24.0078006+00:00",
		"deadline": "2019-11-09T14:11:42.226475+00:00",
		"author_id": 10,
		"team_id": 3
	},
	{
		"id": 41,
		"name": "Assumenda et qui placeat ullam.",
		"description": "Deleniti facere minus soluta beatae praesentium error error.\nEt odit vero id non doloribus rerum corrupti sed.",
		"created_at": "2019-06-18T12:36:02.741135+00:00",
		"deadline": "2020-02-27T11:31:19.1891728+00:00",
		"author_id": 47,
		"team_id": 5
	},
	{
		"id": 42,
		"name": "Sint dolore in assumenda et.",
		"description": "Consequatur ea perferendis iusto animi enim quam.\nCulpa placeat quia amet alias.\nUllam quis suscipit nobis.",
		"created_at": "2019-06-19T03:53:16.9902131+00:00",
		"deadline": "2019-07-01T13:36:06.3510458+00:00",
		"author_id": 39,
		"team_id": 2
	},
	{
		"id": 43,
		"name": "Non est dolore quaerat voluptatem.",
		"description": "Odit nemo ut quia aperiam laudantium.\nSunt quam consequatur dolorum sunt quia et.\nSimilique facere velit sit eius sapiente labore vitae necessitatibus.",
		"created_at": "2019-06-19T03:42:31.4328874+00:00",
		"deadline": "2019-12-05T05:55:50.7902507+00:00",
		"author_id": 19,
		"team_id": 1
	},
	{
		"id": 44,
		"name": "Voluptate amet laboriosam nesciunt sit.",
		"description": "Odio qui eos delectus nobis autem.\nRepudiandae cum velit quia.\nEt nihil ipsa quos pariatur ut sit cupiditate et.\nEst et libero molestiae.\nNobis incidunt nam laudantium iure.\nMolestiae ut voluptatibus saepe dignissimos dolores.",
		"created_at": "2019-06-19T08:11:00.7503763+00:00",
		"deadline": "2019-11-21T08:37:35.0493838+00:00",
		"author_id": 39,
		"team_id": 4
	},
	{
		"id": 45,
		"name": "Voluptatum aliquam non id est.",
		"description": "Quos amet neque corporis laborum eius itaque repellat.\nAliquam iusto excepturi soluta aut.\nIllum nisi alias beatae inventore animi ea rem mollitia possimus.",
		"created_at": "2019-06-19T01:59:03.8541101+00:00",
		"deadline": "2020-01-02T15:32:25.2755553+00:00",
		"author_id": 41,
		"team_id": 2
	},
	{
		"id": 46,
		"name": "Eos dolorem harum voluptatem ut.",
		"description": "Tempora consectetur vel magni quae.\nRatione et maiores aliquam facilis qui non iusto amet animi.",
		"created_at": "2019-06-18T21:06:06.1058628+00:00",
		"deadline": "2020-02-11T09:47:17.5137401+00:00",
		"author_id": 16,
		"team_id": 1
	},
	{
		"id": 47,
		"name": "Porro error perspiciatis architecto in.",
		"description": "Neque molestiae aut consectetur qui quo.\nDeserunt sequi amet hic perferendis cumque quaerat incidunt.\nQuas saepe nihil facilis quia hic modi.\nPerferendis dignissimos dicta natus distinctio facilis quod qui veniam excepturi.\nVel sit et et iste pariatur nulla aperiam velit cumque.",
		"created_at": "2019-06-19T09:37:08.3430011+00:00",
		"deadline": "2019-10-04T18:19:30.4296983+00:00",
		"author_id": 20,
		"team_id": 9
	},
	{
		"id": 48,
		"name": "Tenetur ipsa dolor reiciendis sed.",
		"description": "Sed qui quia cumque.\nSed non molestias ducimus eius qui consectetur ad esse.\nOdio qui et quibusdam sit sint.",
		"created_at": "2019-06-19T00:04:36.6140843+00:00",
		"deadline": "2020-04-11T08:33:22.2965853+00:00",
		"author_id": 15,
		"team_id": 8
	},
	{
		"id": 49,
		"name": "Aliquam architecto nihil animi error.",
		"description": "Ullam est est ea.\nEt aut minus repudiandae cupiditate delectus deleniti error sed iste.\nCupiditate id repellendus.\nQuia aut exercitationem.\nSed blanditiis est dolores ipsa modi.",
		"created_at": "2019-06-19T10:30:44.7609514+00:00",
		"deadline": "2020-05-16T13:39:16.857101+00:00",
		"author_id": 45,
		"team_id": 5
	},
	{
		"id": 50,
		"name": "Necessitatibus et aut et unde.",
		"description": "Veritatis esse reprehenderit.\nAut nesciunt nulla cumque alias sit repellat omnis quidem.\nQuam deleniti numquam dolorem iusto sequi enim est est.\nVitae aut alias ipsam illo ut blanditiis.",
		"created_at": "2019-06-18T22:13:13.7771674+00:00",
		"deadline": "2019-07-09T20:21:52.8651676+00:00",
		"author_id": 10,
		"team_id": 1
	},
	{
		"id": 51,
		"name": "Laudantium ut unde qui ullam.",
		"description": "Ipsa ipsa voluptates odit fugiat porro rem sit officia.\nFugit odio placeat quis.\nEst omnis quibusdam nesciunt provident facilis id est.\nOfficia in qui tenetur in libero aspernatur dolores aliquid sint.\nEst impedit reiciendis quia veniam nulla aperiam cum.\nEarum placeat enim necessitatibus.",
		"created_at": "2019-06-19T05:30:20.3588358+00:00",
		"deadline": "2020-03-15T06:36:40.2676835+00:00",
		"author_id": 7,
		"team_id": 8
	},
	{
		"id": 52,
		"name": "Eos ut voluptatem corporis voluptatem.",
		"description": "Quaerat dolores sint odio et qui reiciendis.\nIncidunt est beatae.\nDolor dolorum debitis.\nEst veritatis molestias alias quo ut optio numquam.\nDebitis dolorem repellat dicta consequatur nisi.\nId laudantium sint voluptatem voluptas.",
		"created_at": "2019-06-18T13:20:54.9085834+00:00",
		"deadline": "2020-01-22T23:18:42.6887369+00:00",
		"author_id": 38,
		"team_id": 1
	},
	{
		"id": 53,
		"name": "Nam beatae neque expedita veritatis.",
		"description": "Voluptatem culpa ut et consequatur.\nSoluta doloribus iusto ullam asperiores quae reiciendis voluptatibus alias et.",
		"created_at": "2019-06-18T12:39:23.125235+00:00",
		"deadline": "2019-11-05T18:51:24.8834083+00:00",
		"author_id": 38,
		"team_id": 4
	},
	{
		"id": 54,
		"name": "Nihil qui commodi perferendis nemo.",
		"description": "Quia consectetur provident.\nEum accusamus at minus quas dolorem aspernatur.\nAssumenda repellendus molestiae quo accusantium animi impedit.\nReiciendis distinctio non.",
		"created_at": "2019-06-19T04:05:11.4242298+00:00",
		"deadline": "2020-04-01T07:43:45.0797837+00:00",
		"author_id": 46,
		"team_id": 8
	},
	{
		"id": 55,
		"name": "Est sed numquam cupiditate itaque.",
		"description": "Quas et ut quod est dolor quia magnam dolores eaque.\nIncidunt iste sed omnis perferendis.\nEsse mollitia laboriosam inventore excepturi.",
		"created_at": "2019-06-18T19:10:34.4611581+00:00",
		"deadline": "2020-06-11T03:54:03.1635335+00:00",
		"author_id": 38,
		"team_id": 7
	},
	{
		"id": 56,
		"name": "Dolor et adipisci quis corporis.",
		"description": "Voluptas minima consequuntur consequatur.\nAsperiores provident aut qui dolorem.",
		"created_at": "2019-06-18T20:12:21.1853191+00:00",
		"deadline": "2019-08-21T14:02:42.1561171+00:00",
		"author_id": 26,
		"team_id": 7
	},
	{
		"id": 57,
		"name": "Sequi fugiat cupiditate aut aut.",
		"description": "Accusamus doloribus dolorem.\nDicta sapiente repellat aut.\nQuia id sed.",
		"created_at": "2019-06-19T07:24:35.086643+00:00",
		"deadline": "2019-07-20T02:53:44.0656454+00:00",
		"author_id": 36,
		"team_id": 3
	},
	{
		"id": 58,
		"name": "Sed illo quam et commodi.",
		"description": "Aut dolore reiciendis totam voluptatem.\nTempore voluptate adipisci qui aut ut.\nUllam expedita velit aperiam provident.",
		"created_at": "2019-06-18T20:05:57.3810087+00:00",
		"deadline": "2019-07-23T14:29:02.3030204+00:00",
		"author_id": 34,
		"team_id": 10
	},
	{
		"id": 59,
		"name": "Eum deserunt laudantium eveniet sit.",
		"description": "Est ad tempore ut rerum sit et aut dolores.\nTotam eum quibusdam ut ullam aut maxime ut aliquid unde.\nIure provident enim expedita reprehenderit consequatur et eum alias.",
		"created_at": "2019-06-19T01:15:22.1517238+00:00",
		"deadline": "2019-08-04T09:37:01.2410481+00:00",
		"author_id": 12,
		"team_id": 4
	},
	{
		"id": 60,
		"name": "Molestias unde odio et facilis.",
		"description": "Dicta ut iste fuga nostrum nesciunt eveniet dicta dolorum.\nNon eum est aut ullam maxime in rerum.\nEt ipsa est quos pariatur.",
		"created_at": "2019-06-18T21:47:17.4642868+00:00",
		"deadline": "2019-09-15T08:56:04.6933875+00:00",
		"author_id": 2,
		"team_id": 3
	},
	{
		"id": 61,
		"name": "Facere provident ipsam quia quasi.",
		"description": "Pariatur aut est commodi ut rem omnis voluptas veniam.\nIn culpa est non.\nIpsa perspiciatis qui et impedit commodi quae nihil eum.\nEarum et suscipit dicta ea.\nOmnis reiciendis sed ducimus assumenda facere occaecati.",
		"created_at": "2019-06-19T10:57:55.5618098+00:00",
		"deadline": "2019-06-25T20:36:15.2280782+00:00",
		"author_id": 10,
		"team_id": 3
	},
	{
		"id": 62,
		"name": "Quia et voluptas qui est.",
		"description": "Quos assumenda non odio sunt ea et ut voluptatem odit.\nEst dignissimos soluta aut officia.\nId ea omnis aperiam nostrum accusantium autem ducimus.\nEa voluptas ab perspiciatis aut sit.\nEum deserunt harum.\nVoluptatem rerum quibusdam facilis et corrupti velit est.",
		"created_at": "2019-06-18T12:44:16.7988118+00:00",
		"deadline": "2020-01-15T06:24:40.9432543+00:00",
		"author_id": 41,
		"team_id": 3
	},
	{
		"id": 63,
		"name": "Et velit pariatur sed veritatis.",
		"description": "Maxime omnis asperiores facilis.\nSapiente numquam quisquam.\nSapiente error veritatis dicta magnam.\nQuia porro est fugit provident et et et debitis fuga.\nSint maiores nisi a.\nReiciendis rem reprehenderit necessitatibus.",
		"created_at": "2019-06-19T03:58:04.1704523+00:00",
		"deadline": "2019-08-05T15:18:49.6074132+00:00",
		"author_id": 17,
		"team_id": 3
	},
	{
		"id": 64,
		"name": "Nobis veniam voluptas aut omnis.",
		"description": "Consectetur architecto sequi debitis dolores mollitia hic eum in.\nEveniet sed voluptatem debitis.",
		"created_at": "2019-06-18T16:36:40.5775001+00:00",
		"deadline": "2019-11-29T11:07:50.0240971+00:00",
		"author_id": 12,
		"team_id": 4
	},
	{
		"id": 65,
		"name": "Fugiat officia officia optio commodi.",
		"description": "Voluptatum consequatur et dolore eaque quas necessitatibus accusamus et recusandae.\nFugiat laudantium qui provident doloremque sunt.\nOmnis incidunt quia eius et labore illo iure voluptas non.\nDolorem dolores quo autem aut expedita.\nOccaecati dolores commodi fuga consequatur dolore sequi earum alias.",
		"created_at": "2019-06-19T03:27:37.5488775+00:00",
		"deadline": "2019-11-12T00:21:41.2142071+00:00",
		"author_id": 46,
		"team_id": 6
	},
	{
		"id": 66,
		"name": "Natus et nihil animi unde.",
		"description": "Necessitatibus consectetur consectetur est id.\nDucimus cumque iusto minus blanditiis qui dolorem placeat molestias tenetur.\nDolores tempora sapiente et reiciendis labore expedita rem.\nEt eos nam autem.\nDolorem explicabo in.",
		"created_at": "2019-06-19T04:32:40.1020038+00:00",
		"deadline": "2020-05-12T20:19:58.9239173+00:00",
		"author_id": 17,
		"team_id": 10
	},
	{
		"id": 67,
		"name": "Necessitatibus quae quibusdam qui molestias.",
		"description": "Sit ex omnis ab unde beatae totam quia dolorem amet.\nTenetur sed dolor quos sit officia aperiam facilis fuga harum.\nVoluptas pariatur sit perferendis repudiandae dolore.",
		"created_at": "2019-06-18T18:37:27.939461+00:00",
		"deadline": "2019-08-24T15:46:43.8403099+00:00",
		"author_id": 9,
		"team_id": 7
	},
	{
		"id": 68,
		"name": "Ut porro eos rerum beatae.",
		"description": "Quo facilis et.\nNumquam maiores quis voluptate sed.\nQuo non quam et facilis nemo.\nDeserunt cumque et provident neque eius qui nam in.\nMaiores illum eaque id aliquam omnis.\nNon reiciendis magni modi omnis eos consequatur est vel at.",
		"created_at": "2019-06-19T00:24:57.9658214+00:00",
		"deadline": "2019-12-07T06:58:12.5363013+00:00",
		"author_id": 48,
		"team_id": 2
	},
	{
		"id": 69,
		"name": "Quia velit exercitationem exercitationem autem.",
		"description": "Omnis molestiae ea animi quidem unde iure.\nDolores temporibus praesentium et molestias itaque libero.\nDolorum ipsa voluptas inventore.\nRepellendus commodi cum quo eum eum nam ea maxime enim.\nFugiat voluptas vel omnis est dolorum repudiandae enim nihil perferendis.\nEt consequatur occaecati nobis tempore et ut tempore magnam sed.",
		"created_at": "2019-06-18T21:09:21.5302223+00:00",
		"deadline": "2020-05-08T22:42:49.677718+00:00",
		"author_id": 34,
		"team_id": 8
	},
	{
		"id": 70,
		"name": "Soluta necessitatibus aliquam quisquam quisquam.",
		"description": "Voluptatum culpa mollitia sit natus fugit in alias magni.\nQuidem voluptates ut ullam libero consectetur optio.",
		"created_at": "2019-06-19T10:17:03.384864+00:00",
		"deadline": "2019-08-16T13:47:21.2978203+00:00",
		"author_id": 1,
		"team_id": 2
	},
	{
		"id": 71,
		"name": "Veritatis nisi rerum nam laborum.",
		"description": "Minus expedita deserunt.\nEum dolores officia nihil et quas fugit ut.\nTempore quia consequatur magnam placeat et omnis perferendis optio.\nNatus quo sit soluta esse ut est.",
		"created_at": "2019-06-19T10:02:37.6632924+00:00",
		"deadline": "2019-12-25T23:57:15.396829+00:00",
		"author_id": 48,
		"team_id": 7
	},
	{
		"id": 72,
		"name": "Ut voluptatum recusandae itaque vitae.",
		"description": "Et ut adipisci quae rem sit qui itaque.\nOptio repudiandae maxime minus beatae.\nExplicabo aperiam doloribus.\nBlanditiis quia amet ad maiores dolorem sint non ea.\nArchitecto ipsam libero aspernatur ab assumenda molestiae consequatur.",
		"created_at": "2019-06-19T04:18:39.8051919+00:00",
		"deadline": "2019-12-24T20:57:47.0101664+00:00",
		"author_id": 12,
		"team_id": 7
	},
	{
		"id": 73,
		"name": "Voluptatum eveniet tenetur id velit.",
		"description": "Incidunt vel eveniet hic.\nEnim ut inventore asperiores quia.\nIste aut doloribus nostrum voluptatem eum et est nobis enim.\nQui occaecati placeat consequuntur quia optio nostrum.\nVel delectus accusantium exercitationem quia.\nQuia consequatur in temporibus molestias.",
		"created_at": "2019-06-19T04:58:07.5426574+00:00",
		"deadline": "2020-03-05T21:36:13.9181538+00:00",
		"author_id": 22,
		"team_id": 2
	},
	{
		"id": 74,
		"name": "Nobis aut nostrum sit quidem.",
		"description": "Omnis quia sint fuga et.\nVelit ratione eos voluptas voluptas cum.\nRepudiandae non excepturi illum accusantium dicta sit nulla vero.\nAnimi ipsum similique rerum.",
		"created_at": "2019-06-18T20:29:24.1711692+00:00",
		"deadline": "2019-07-12T09:13:36.1382423+00:00",
		"author_id": 13,
		"team_id": 9
	},
	{
		"id": 75,
		"name": "Et placeat voluptatem esse qui.",
		"description": "Laborum autem dolorem aliquam est nam rerum.\nSit quisquam nesciunt quis rem sequi unde iste sint.\nDoloremque voluptatem qui dicta dolores eos ut aliquam.",
		"created_at": "2019-06-18T23:25:22.2529838+00:00",
		"deadline": "2019-10-18T02:05:21.9359678+00:00",
		"author_id": 6,
		"team_id": 10
	},
	{
		"id": 76,
		"name": "Et nihil dolores enim esse.",
		"description": "Officia quia molestias expedita velit ut neque et officiis.\nEx odit adipisci quas quisquam temporibus.\nExplicabo non ullam.",
		"created_at": "2019-06-18T16:23:43.3591264+00:00",
		"deadline": "2019-06-30T00:12:31.7521541+00:00",
		"author_id": 18,
		"team_id": 4
	},
	{
		"id": 77,
		"name": "Fugiat fugiat non modi qui.",
		"description": "Quod aliquam nihil non.\nCupiditate nam eaque pariatur suscipit ut.\nNulla aut consequatur.",
		"created_at": "2019-06-19T03:39:19.6381547+00:00",
		"deadline": "2020-03-13T16:04:24.3144039+00:00",
		"author_id": 16,
		"team_id": 8
	},
	{
		"id": 78,
		"name": "Beatae dolor necessitatibus asperiores qui.",
		"description": "Ipsum qui culpa impedit itaque qui rerum non et.\nCorrupti in ut ut reprehenderit illo cum sapiente quibusdam.\nOmnis commodi dolorem aspernatur modi.",
		"created_at": "2019-06-18T13:44:06.2814103+00:00",
		"deadline": "2019-11-29T18:12:47.194201+00:00",
		"author_id": 27,
		"team_id": 2
	},
	{
		"id": 79,
		"name": "At voluptatem rerum optio tempore.",
		"description": "Praesentium qui in dolor iure harum ex nesciunt et.\nPerspiciatis et est quia non doloremque accusantium et.\nAut repellat deleniti atque quos.",
		"created_at": "2019-06-19T11:11:54.879305+00:00",
		"deadline": "2020-05-20T02:00:39.0394045+00:00",
		"author_id": 25,
		"team_id": 2
	},
	{
		"id": 80,
		"name": "Officia id aut error repudiandae.",
		"description": "Sed error perferendis earum sint aut nam.\nEt ut rerum totam ut rerum incidunt vero temporibus.\nPerspiciatis voluptas reiciendis expedita voluptates et.\nDignissimos deserunt sunt rerum nulla reiciendis id eos non cum.",
		"created_at": "2019-06-18T17:24:41.4014788+00:00",
		"deadline": "2019-12-07T19:17:10.2769146+00:00",
		"author_id": 1,
		"team_id": 10
	},
	{
		"id": 81,
		"name": "Quibusdam suscipit fuga maiores officia.",
		"description": "Quis quia ex.\nSunt sequi quis nihil et debitis expedita voluptatem.",
		"created_at": "2019-06-19T03:28:59.763424+00:00",
		"deadline": "2019-07-02T10:20:28.8282491+00:00",
		"author_id": 24,
		"team_id": 5
	},
	{
		"id": 82,
		"name": "Numquam et molestiae ratione voluptas.",
		"description": "Omnis nulla eum et maxime molestias aliquid tempore quia fugiat.\nSequi totam numquam saepe possimus dolorem consequatur iusto voluptates et.\nEos molestiae accusamus eum labore voluptate sit nam rerum.",
		"created_at": "2019-06-19T09:29:03.131413+00:00",
		"deadline": "2020-02-24T20:31:33.1847722+00:00",
		"author_id": 46,
		"team_id": 2
	},
	{
		"id": 83,
		"name": "Ut voluptatem dicta fuga adipisci.",
		"description": "Suscipit voluptatem qui voluptatem.\nAut quia eveniet aspernatur dolor saepe laudantium neque hic maiores.\nAdipisci commodi ut rerum laboriosam expedita hic non labore nemo.",
		"created_at": "2019-06-18T21:27:32.5918254+00:00",
		"deadline": "2020-01-31T23:20:04.1660531+00:00",
		"author_id": 50,
		"team_id": 5
	},
	{
		"id": 84,
		"name": "Maxime labore facilis mollitia deleniti.",
		"description": "Unde iusto ea dicta iusto error aut temporibus qui.\nFacilis repudiandae commodi.\nQuaerat molestiae voluptatem et cum quis recusandae beatae rerum voluptatem.\nEa ea eaque et qui.",
		"created_at": "2019-06-18T18:02:05.6934726+00:00",
		"deadline": "2020-01-12T10:41:31.6025887+00:00",
		"author_id": 24,
		"team_id": 5
	},
	{
		"id": 85,
		"name": "Facilis non voluptates vero et.",
		"description": "Quam temporibus nemo aut beatae magni nulla atque enim.\nQui aut quia at rem.",
		"created_at": "2019-06-19T08:59:23.0250516+00:00",
		"deadline": "2020-04-05T02:15:04.19132+00:00",
		"author_id": 5,
		"team_id": 8
	},
	{
		"id": 86,
		"name": "Sed veritatis dolores harum iusto.",
		"description": "Dolore dolore voluptas sit praesentium sapiente.\nCupiditate sint nostrum suscipit quis magnam enim.",
		"created_at": "2019-06-19T10:58:47.2530474+00:00",
		"deadline": "2019-12-24T20:58:40.9200099+00:00",
		"author_id": 28,
		"team_id": 4
	},
	{
		"id": 87,
		"name": "Quo nam enim voluptatem quia.",
		"description": "Aut officiis necessitatibus dolor veniam sequi officiis quibusdam est.\nAnimi sequi exercitationem et voluptas modi est laboriosam dolor praesentium.",
		"created_at": "2019-06-18T23:52:39.9495794+00:00",
		"deadline": "2020-04-10T23:04:03.3371756+00:00",
		"author_id": 26,
		"team_id": 8
	},
	{
		"id": 88,
		"name": "Molestias autem eos animi excepturi.",
		"description": "Quasi consectetur quia ex sunt optio quod incidunt dolores laudantium.\nFacilis iure repudiandae in ab et.\nDignissimos dolorum et.",
		"created_at": "2019-06-18T19:10:40.7158425+00:00",
		"deadline": "2020-06-18T18:01:24.5870464+00:00",
		"author_id": 34,
		"team_id": 1
	},
	{
		"id": 89,
		"name": "Aut velit ad corrupti sit.",
		"description": "Ea ut non delectus dicta.\nCum non et odit ipsa repellat voluptatem.\nAutem est aut maxime molestias non et culpa veritatis.",
		"created_at": "2019-06-18T21:23:21.0813863+00:00",
		"deadline": "2019-07-15T22:47:10.0843107+00:00",
		"author_id": 26,
		"team_id": 3
	},
	{
		"id": 90,
		"name": "Reiciendis dolores totam maxime sed.",
		"description": "Labore corrupti iure iusto.\nQuia qui sint quo illum a cum nobis id id.",
		"created_at": "2019-06-18T17:31:06.3819386+00:00",
		"deadline": "2019-11-21T06:39:09.3440602+00:00",
		"author_id": 9,
		"team_id": 8
	},
	{
		"id": 91,
		"name": "Maxime numquam qui quo blanditiis.",
		"description": "Placeat optio doloremque odio commodi molestiae consequatur aut fuga rerum.\nCum repellendus iure dolores voluptatem accusamus.\nFugit quo cupiditate voluptatem.\nArchitecto corporis alias est.",
		"created_at": "2019-06-18T23:29:51.5522437+00:00",
		"deadline": "2019-11-29T11:19:54.8939266+00:00",
		"author_id": 50,
		"team_id": 5
	},
	{
		"id": 92,
		"name": "Non maiores dicta autem optio.",
		"description": "Blanditiis aperiam accusamus sunt fugit.\nAperiam atque a quia laborum et tenetur deserunt laboriosam.\nAliquid est blanditiis tenetur eos ea ipsam.\nFugit quia labore praesentium eligendi.\nAut iusto voluptatem mollitia temporibus vitae ut hic.\nReprehenderit ipsa illum quae atque fugiat molestiae praesentium inventore officia.",
		"created_at": "2019-06-18T20:09:48.8577662+00:00",
		"deadline": "2019-11-04T04:06:44.1676231+00:00",
		"author_id": 37,
		"team_id": 7
	},
	{
		"id": 93,
		"name": "Recusandae dolores explicabo porro molestias.",
		"description": "Laborum sunt autem quaerat aut quia et ea et quaerat.\nEa vel et repudiandae voluptatem ipsam fugiat non.\nMaxime sit officiis ipsam.\nCommodi consectetur sit praesentium optio consequatur praesentium quos consequatur omnis.",
		"created_at": "2019-06-19T05:54:24.4992785+00:00",
		"deadline": "2019-12-07T05:04:13.8593906+00:00",
		"author_id": 2,
		"team_id": 8
	},
	{
		"id": 94,
		"name": "Distinctio consequuntur aut aliquam sit.",
		"description": "Fugiat dolor sit illum dolor.\nReiciendis ut neque et cumque deleniti exercitationem placeat voluptatibus rem.\nOdit necessitatibus dolor voluptates consequatur nostrum ducimus exercitationem provident praesentium.\nVeritatis rerum molestiae ut culpa quidem non perferendis ipsam.\nRepudiandae atque atque tempora voluptas nisi voluptas perspiciatis.",
		"created_at": "2019-06-19T02:49:39.0251391+00:00",
		"deadline": "2019-12-16T08:47:30.7131468+00:00",
		"author_id": 32,
		"team_id": 7
	},
	{
		"id": 95,
		"name": "Quia ratione odio omnis nihil.",
		"description": "Similique occaecati magnam nihil aut quia occaecati quas nesciunt eveniet.\nEius ut sequi aliquam consectetur voluptate optio nobis.",
		"created_at": "2019-06-18T20:00:21.2280975+00:00",
		"deadline": "2020-06-07T13:04:00.807133+00:00",
		"author_id": 48,
		"team_id": 7
	},
	{
		"id": 96,
		"name": "Eaque quo consectetur voluptate iusto.",
		"description": "Accusantium numquam quas.\nPlaceat quia nam inventore.\nSit quia voluptas id facilis.\nIn impedit et tenetur tenetur doloremque vero id illo.\nRerum assumenda non qui sint quibusdam vitae est inventore officiis.",
		"created_at": "2019-06-18T17:41:56.3099797+00:00",
		"deadline": "2019-11-28T15:37:32.0211843+00:00",
		"author_id": 36,
		"team_id": 9
	},
	{
		"id": 97,
		"name": "Magni non aliquid voluptas nam.",
		"description": "Beatae odit sed.\nAtque et atque dolorem quasi ipsum.\nDucimus sit et ex blanditiis rem.\nModi labore sed unde est reprehenderit.\nEt explicabo qui molestiae soluta non architecto velit.",
		"created_at": "2019-06-19T01:57:48.6930508+00:00",
		"deadline": "2020-04-21T16:10:41.5679017+00:00",
		"author_id": 41,
		"team_id": 7
	},
	{
		"id": 98,
		"name": "Ratione iusto necessitatibus animi eveniet.",
		"description": "Delectus ut expedita perspiciatis omnis architecto debitis officiis.\nEa maiores provident sit vel facere.\nVel distinctio in reprehenderit rerum in eaque.\nInventore eligendi ducimus voluptas sit.\nRerum eius natus quasi nihil.\nQuia unde quae ex aut expedita.",
		"created_at": "2019-06-19T11:35:47.04566+00:00",
		"deadline": "2020-02-06T22:15:08.4935212+00:00",
		"author_id": 1,
		"team_id": 9
	},
	{
		"id": 99,
		"name": "Voluptas consectetur qui illum architecto.",
		"description": "Mollitia veritatis similique incidunt ipsam atque.\nFuga omnis at.\nOmnis assumenda ut.\nReprehenderit sit voluptate voluptatem laborum.\nOfficia voluptatibus voluptas.\nQuos repellendus commodi.",
		"created_at": "2019-06-19T05:09:51.5901153+00:00",
		"deadline": "2019-09-21T03:43:27.7793933+00:00",
		"author_id": 47,
		"team_id": 3
	},
	{
		"id": 100,
		"name": "Cumque quisquam delectus aut vero.",
		"description": "Et delectus qui magnam aut non dolore vitae nemo et.\nEt velit vel voluptas qui consequatur beatae aut sed.",
		"created_at": "2019-06-19T05:33:49.7056261+00:00",
		"deadline": "2020-04-15T17:18:34.813746+00:00",
		"author_id": 35,
		"team_id": 8
	}
]